{"ballerinax/github:0.99.14:IssueList":[{"nodes":[{"author":{"login":"SkNuwanTissera", "resourcePath":"/SkNuwanTissera", "url":"https://github.com/SkNuwanTissera", "avatarUrl":"https://avatars.githubusercontent.com/u/19235998?u=176a71e7ab7502c1b5ef3d04e7c7baba0beac69c&v=4"}, "body":"restart mongoose\r\nnpm start again", "bodyHTML":"<p>restart mongoose<br>\nnpm start again<\/p>", "bodyResourcePath":"/SkNuwanTissera/HexSpeak/issues/1#issue-226726004", "bodyText":"restart mongoose\nnpm start again", "bodyUrl":"https://github.com/SkNuwanTissera/HexSpeak/issues/1#issue-226726004", "closed":false, "closedAt":null, "createdAt":"2017-05-06T01:08:53Z", "createdViaEmail":false, "databaseId":226726004, "editor":null, "id":"MDU6SXNzdWUyMjY3MjYwMDQ=", "isPinned":false, "isReadByViewer":true, "lastEditedAt":null, "locked":false, "number":1, "publishedAt":"2017-05-06T01:08:53Z", "resourcePath":"/SkNuwanTissera/HexSpeak/issues/1", "state":"OPEN", "title":"APPCRASHED***", "updatedAt":"2017-05-06T01:08:53Z", "url":"https://github.com/SkNuwanTissera/HexSpeak/issues/1", "viewerDidAuthor":true}, {"author":{"login":"SkNuwanTissera", "resourcePath":"/SkNuwanTissera", "url":"https://github.com/SkNuwanTissera", "avatarUrl":"https://avatars.githubusercontent.com/u/19235998?u=176a71e7ab7502c1b5ef3d04e7c7baba0beac69c&v=4"}, "body":"npm install bower -g\r\nbower install\r\n", "bodyHTML":"<p>npm install bower -g<br>\nbower install<\/p>", "bodyResourcePath":"/SkNuwanTissera/HexSpeak/issues/2#issue-226726105", "bodyText":"npm install bower -g\nbower install", "bodyUrl":"https://github.com/SkNuwanTissera/HexSpeak/issues/2#issue-226726105", "closed":false, "closedAt":null, "createdAt":"2017-05-06T01:10:07Z", "createdViaEmail":false, "databaseId":226726105, "editor":null, "id":"MDU6SXNzdWUyMjY3MjYxMDU=", "isPinned":false, "isReadByViewer":true, "lastEditedAt":null, "locked":false, "number":2, "publishedAt":"2017-05-06T01:10:07Z", "resourcePath":"/SkNuwanTissera/HexSpeak/issues/2", "state":"OPEN", "title":"Any issue in views of libraries ( j query,angular,boostrap )", "updatedAt":"2017-05-06T01:10:07Z", "url":"https://github.com/SkNuwanTissera/HexSpeak/issues/2", "viewerDidAuthor":true}, {"author":{"login":"SkNuwanTissera", "resourcePath":"/SkNuwanTissera", "url":"https://github.com/SkNuwanTissera", "avatarUrl":"https://avatars.githubusercontent.com/u/19235998?u=176a71e7ab7502c1b5ef3d04e7c7baba0beac69c&v=4"}, "body":"Test Issue 3", "bodyHTML":"<p>Test Issue 3</p>", "bodyResourcePath":"/SkNuwanTissera/HexSpeak/issues/6#issue-889320980", "bodyText":"Test Issue 3", "bodyUrl":"https://github.com/SkNuwanTissera/HexSpeak/issues/6#issue-889320980", "closed":false, "closedAt":null, "createdAt":"2021-05-12T00:31:14Z", "createdViaEmail":false, "databaseId":889320980, "editor":null, "id":"MDU6SXNzdWU4ODkzMjA5ODA=", "isPinned":false, "isReadByViewer":true, "lastEditedAt":null, "locked":false, "number":6, "publishedAt":"2021-05-12T00:31:14Z", "resourcePath":"/SkNuwanTissera/HexSpeak/issues/6", "state":"OPEN", "title":"Test Issue 3", "updatedAt":"2021-05-12T11:46:04Z", "url":"https://github.com/SkNuwanTissera/HexSpeak/issues/6", "viewerDidAuthor":true}], "pageInfo":{"startCursor":"Y3Vyc29yOnYyOpHODYOQdA==", "endCursor":"Y3Vyc29yOnYyOpHONQH2FA==", "hasNextPage":true, "hasPreviousPage":false}, "totalCount":5},{"nodes":[{"author":{"login":"SkNuwanTissera", "resourcePath":"/SkNuwanTissera", "url":"https://github.com/SkNuwanTissera", "avatarUrl":"https://avatars.githubusercontent.com/u/19235998?u=176a71e7ab7502c1b5ef3d04e7c7baba0beac69c&v=4"}, "body":"Test1", "bodyHTML":"<p>Test1</p>", "bodyResourcePath":"/SkNuwanTissera/Automated_Attendance/issues/38#issue-890008614", "bodyText":"Test1", "bodyUrl":"https://github.com/SkNuwanTissera/Automated_Attendance/issues/38#issue-890008614", "closed":false, "closedAt":null, "createdAt":"2021-05-12T11:57:13Z", "createdViaEmail":false, "databaseId":890008614, "editor":null, "id":"MDU6SXNzdWU4OTAwMDg2MTQ=", "isPinned":false, "isReadByViewer":true, "lastEditedAt":null, "locked":false, "number":38, "publishedAt":"2021-05-12T11:57:13Z", "resourcePath":"/SkNuwanTissera/Automated_Attendance/issues/38", "state":"OPEN", "title":"Test1", "updatedAt":"2021-05-12T11:57:18Z", "url":"https://github.com/SkNuwanTissera/Automated_Attendance/issues/38", "viewerDidAuthor":true}], "pageInfo":{"startCursor":"Y3Vyc29yOnYyOpHONQx0Jg==", "endCursor":"Y3Vyc29yOnYyOpHONQx0Jg==", "hasNextPage":false, "hasPreviousPage":false}, "totalCount":1},{"nodes":[{"author":{"login":"SkNuwanTissera", "resourcePath":"/SkNuwanTissera", "url":"https://github.com/SkNuwanTissera", "avatarUrl":"https://avatars.githubusercontent.com/u/19235998?u=176a71e7ab7502c1b5ef3d04e7c7baba0beac69c&v=4"}, "body":"Test1", "bodyHTML":"<p>Test1</p>", "bodyResourcePath":"/SkNuwanTissera/AwruduKemaMLClassifier/issues/1#issue-890009152", "bodyText":"Test1", "bodyUrl":"https://github.com/SkNuwanTissera/AwruduKemaMLClassifier/issues/1#issue-890009152", "closed":false, "closedAt":null, "createdAt":"2021-05-12T11:57:54Z", "createdViaEmail":false, "databaseId":890009152, "editor":null, "id":"MDU6SXNzdWU4OTAwMDkxNTI=", "isPinned":false, "isReadByViewer":true, "lastEditedAt":null, "locked":false, "number":1, "publishedAt":"2021-05-12T11:57:54Z", "resourcePath":"/SkNuwanTissera/AwruduKemaMLClassifier/issues/1", "state":"OPEN", "title":"Test1", "updatedAt":"2021-05-12T11:58:00Z", "url":"https://github.com/SkNuwanTissera/AwruduKemaMLClassifier/issues/1", "viewerDidAuthor":true}], "pageInfo":{"startCursor":"Y3Vyc29yOnYyOpHONQx2QA==", "endCursor":"Y3Vyc29yOnYyOpHONQx2QA==", "hasNextPage":false, "hasPreviousPage":false}, "totalCount":1}]}